thompson-ryan-ADA-homework-3
…
  bootstrapped_lm <- tibble(
    slope = slope, 
    intercept = intercept)
  bootstrapped_lm
}

boot_lm(d = d, model = HomeRange_km2 ~ Body_mass_female_mean)

## Warning: Removed 76 rows containing missing values.

## # A tibble: 1,000 x 2
##       slope intercept
##       <dbl>     <dbl>
##  1 0.000272    -0.217
##  2 0.000110     1.12 
##  3 0.000157     0.712
##  4 0.000254     0.626
##  5 0.000253     0.168
##  6 0.000373    -0.530
##  7 0.000225     0.324
##  8 0.000213     0.716
##  9 0.000216     0.683
## 10 0.000212     0.691
## # ... with 990 more rows
…
